{
  "package": "co.neeve.nae2.mixin",
  "required": true,
  "refmap": "mixins.nae2.refmap.json",
  "target": "@env(DEFAULT)",
  "minVersion": "0.8",
  "compatibilityLevel": "JAVA_8",
  "mixins": [
    "upgrades.autocomplete.MixinCraftingCPUCluster",
    "upgrades.autocomplete.MixinDualityInterface"
  ],
  "client": [],
  "server": []
}